^C:\USERS\MRN\DOCUMENTS\LOGGER_S\LOGGER\TESTLOGGER\STDAFX.CPP
/c /ZI /nologo /W3 /WX- /sdl /Od /D _DEBUG /D _CONSOLE /D _UNICODE /D UNICODE /Gm /EHsc /RTC1 /MDd /GS /fp:precise /Zc:wchar_t /Zc:forScope /Zc:inline /Yc"stdafx.h" /Fp"X64\DEBUG\TESTLOGGER.PCH" /Fo"X64\DEBUG\\" /Fd"X64\DEBUG\VC140.PDB" /Gd /TP C:\USERS\MRN\DOCUMENTS\LOGGER_S\LOGGER\TESTLOGGER\STDAFX.CPP
^C:\USERS\MRN\DOCUMENTS\LOGGER_S\LOGGER\TESTLOGGER\FILEREADER.CPP
/c /ZI /nologo /W3 /WX- /sdl /Od /D _DEBUG /D _CONSOLE /D _UNICODE /D UNICODE /Gm /EHsc /RTC1 /MDd /GS /fp:precise /Zc:wchar_t /Zc:forScope /Zc:inline /Fo"X64\DEBUG\\" /Fd"X64\DEBUG\VC140.PDB" /Gd /TP C:\USERS\MRN\DOCUMENTS\LOGGER_S\LOGGER\TESTLOGGER\FILEREADER.CPP
^C:\USERS\MRN\DOCUMENTS\LOGGER_S\LOGGER\TESTLOGGER\TESTLOGGER.CPP
/c /ZI /nologo /W3 /WX- /sdl /Od /D _DEBUG /D _CONSOLE /D _UNICODE /D UNICODE /Gm /EHsc /RTC1 /MDd /GS /fp:precise /Zc:wchar_t /Zc:forScope /Zc:inline /Fo"X64\DEBUG\\" /Fd"X64\DEBUG\VC140.PDB" /Gd /TP C:\USERS\MRN\DOCUMENTS\LOGGER_S\LOGGER\TESTLOGGER\TESTLOGGER.CPP
