^C:\USERS\MRN\DOCUMENTS\LOGGER_S\LOGGER\LOGGER\X64\DEBUG\CONSOLELOG.OBJ|C:\USERS\MRN\DOCUMENTS\LOGGER_S\LOGGER\LOGGER\X64\DEBUG\FILELOG.OBJ|C:\USERS\MRN\DOCUMENTS\LOGGER_S\LOGGER\LOGGER\X64\DEBUG\ILOG.OBJ|C:\USERS\MRN\DOCUMENTS\LOGGER_S\LOGGER\LOGGER\X64\DEBUG\LOGGINGLEVELS.OBJ|C:\USERS\MRN\DOCUMENTS\LOGGER_S\LOGGER\LOGGER\X64\DEBUG\SOURCE.OBJ
C:\WINDOWS\GLOBALIZATION\SORTING\SORTDEFAULT.NLS
C:\USERS\MRN\DOCUMENTS\LOGGER_S\LOGGER\LOGGER\X64\DEBUG\CONSOLELOG.OBJ
C:\WINDOWS\SYSTEM32\TZRES.DLL
C:\USERS\MRN\DOCUMENTS\LOGGER_S\LOGGER\LOGGER\X64\DEBUG\FILELOG.OBJ
C:\USERS\MRN\DOCUMENTS\LOGGER_S\LOGGER\LOGGER\X64\DEBUG\ILOG.OBJ
C:\USERS\MRN\DOCUMENTS\LOGGER_S\LOGGER\LOGGER\X64\DEBUG\LOGGINGLEVELS.OBJ
C:\USERS\MRN\DOCUMENTS\LOGGER_S\LOGGER\LOGGER\X64\DEBUG\SOURCE.OBJ
