^C:\USERS\MRN\DOCUMENTS\LOGGER_S\LOGGER\UNITTEST1\STDAFX.CPP
C:\USERS\MRN\DOCUMENTS\LOGGER_S\LOGGER\UNITTEST1\X64\DEBUG\UNITTEST1.PCH
C:\USERS\MRN\DOCUMENTS\LOGGER_S\LOGGER\UNITTEST1\X64\DEBUG\VC140.PDB
C:\USERS\MRN\DOCUMENTS\LOGGER_S\LOGGER\UNITTEST1\X64\DEBUG\VC140.IDB
C:\USERS\MRN\DOCUMENTS\LOGGER_S\LOGGER\UNITTEST1\X64\DEBUG\STDAFX.OBJ
^C:\USERS\MRN\DOCUMENTS\LOGGER_S\LOGGER\LOGGER\CONSOLELOG.CPP|C:\USERS\MRN\DOCUMENTS\LOGGER_S\LOGGER\LOGGER\FILELOG.CPP|C:\USERS\MRN\DOCUMENTS\LOGGER_S\LOGGER\LOGGER\LOGGINGLEVELS.CPP|C:\USERS\MRN\DOCUMENTS\LOGGER_S\LOGGER\TESTLOGGER\FILEREADER.CPP|C:\USERS\MRN\DOCUMENTS\LOGGER_S\LOGGER\TIMER\TIMER.CPP|C:\USERS\MRN\DOCUMENTS\LOGGER_S\LOGGER\TIMER\TIMERMANAGER.CPP|C:\USERS\MRN\DOCUMENTS\LOGGER_S\LOGGER\UNITTEST1\UNITTEST1.CPP
C:\USERS\MRN\DOCUMENTS\LOGGER_S\LOGGER\UNITTEST1\X64\DEBUG\VC140.PDB
C:\USERS\MRN\DOCUMENTS\LOGGER_S\LOGGER\UNITTEST1\X64\DEBUG\VC140.IDB
C:\USERS\MRN\DOCUMENTS\LOGGER_S\LOGGER\UNITTEST1\X64\DEBUG\FILEREADER.OBJ
C:\USERS\MRN\DOCUMENTS\LOGGER_S\LOGGER\UNITTEST1\X64\DEBUG\TIMER.OBJ
C:\USERS\MRN\DOCUMENTS\LOGGER_S\LOGGER\UNITTEST1\X64\DEBUG\TIMERMANAGER.OBJ
C:\USERS\MRN\DOCUMENTS\LOGGER_S\LOGGER\UNITTEST1\X64\DEBUG\UNITTEST1.OBJ
C:\USERS\MRN\DOCUMENTS\LOGGER_S\LOGGER\UNITTEST1\X64\DEBUG\CONSOLELOG.OBJ
C:\USERS\MRN\DOCUMENTS\LOGGER_S\LOGGER\UNITTEST1\X64\DEBUG\FILELOG.OBJ
C:\USERS\MRN\DOCUMENTS\LOGGER_S\LOGGER\UNITTEST1\X64\DEBUG\LOGGINGLEVELS.OBJ
^C:\USERS\MRN\DOCUMENTS\LOGGER_S\LOGGER\LOGGER\CONSOLELOG.CPP
C:\USERS\MRN\DOCUMENTS\LOGGER_S\LOGGER\UNITTEST1\X64\DEBUG\VC140.PDB
^C:\USERS\MRN\DOCUMENTS\LOGGER_S\LOGGER\LOGGER\FILELOG.CPP
C:\USERS\MRN\DOCUMENTS\LOGGER_S\LOGGER\UNITTEST1\X64\DEBUG\VC140.PDB
^C:\USERS\MRN\DOCUMENTS\LOGGER_S\LOGGER\LOGGER\LOGGINGLEVELS.CPP
C:\USERS\MRN\DOCUMENTS\LOGGER_S\LOGGER\UNITTEST1\X64\DEBUG\VC140.PDB
^C:\USERS\MRN\DOCUMENTS\LOGGER_S\LOGGER\TESTLOGGER\FILEREADER.CPP
C:\USERS\MRN\DOCUMENTS\LOGGER_S\LOGGER\UNITTEST1\X64\DEBUG\VC140.PDB
^C:\USERS\MRN\DOCUMENTS\LOGGER_S\LOGGER\TIMER\TIMER.CPP
C:\USERS\MRN\DOCUMENTS\LOGGER_S\LOGGER\UNITTEST1\X64\DEBUG\VC140.PDB
^C:\USERS\MRN\DOCUMENTS\LOGGER_S\LOGGER\TIMER\TIMERMANAGER.CPP
C:\USERS\MRN\DOCUMENTS\LOGGER_S\LOGGER\UNITTEST1\X64\DEBUG\VC140.PDB
^C:\USERS\MRN\DOCUMENTS\LOGGER_S\LOGGER\UNITTEST1\UNITTEST1.CPP
C:\USERS\MRN\DOCUMENTS\LOGGER_S\LOGGER\UNITTEST1\X64\DEBUG\VC140.PDB
^C:\USERS\MRN\DOCUMENTS\LOGGER_S\LOGGER\LOGGER\CONSOLELOG.CPP|C:\USERS\MRN\DOCUMENTS\LOGGER_S\LOGGER\LOGGER\FILELOG.CPP|C:\USERS\MRN\DOCUMENTS\LOGGER_S\LOGGER\LOGGER\LOGGINGLEVELS.CPP
