^C:\USERS\MRN\DOCUMENTS\LOGGER_S\LOGGER\TIMER\STDAFX.CPP
/c /ZI /nologo /W3 /WX- /Od /D _DEBUG /D _LIB /D _UNICODE /D UNICODE /Gm /EHsc /RTC1 /MDd /GS /fp:precise /Zc:wchar_t /Zc:forScope /Zc:inline /Yc"stdafx.h" /Fp"X64\DEBUG\TIMER.PCH" /Fo"X64\DEBUG\\" /Fd"X64\DEBUG\TIMER.PDB" /Gd /TP C:\USERS\MRN\DOCUMENTS\LOGGER_S\LOGGER\TIMER\STDAFX.CPP
^C:\USERS\MRN\DOCUMENTS\LOGGER_S\LOGGER\TIMER\TIMER.CPP
/c /ZI /nologo /W3 /WX- /Od /D _DEBUG /D _LIB /D _UNICODE /D UNICODE /Gm /EHsc /RTC1 /MDd /GS /fp:precise /Zc:wchar_t /Zc:forScope /Zc:inline /Yu"stdafx.h" /Fp"X64\DEBUG\TIMER.PCH" /Fo"X64\DEBUG\\" /Fd"X64\DEBUG\TIMER.PDB" /Gd /TP C:\USERS\MRN\DOCUMENTS\LOGGER_S\LOGGER\TIMER\TIMER.CPP
^C:\USERS\MRN\DOCUMENTS\LOGGER_S\LOGGER\TIMER\TIMERMANAGER.CPP
/c /ZI /nologo /W3 /WX- /Od /D _DEBUG /D _LIB /D _UNICODE /D UNICODE /Gm /EHsc /RTC1 /MDd /GS /fp:precise /Zc:wchar_t /Zc:forScope /Zc:inline /Yu"stdafx.h" /Fp"X64\DEBUG\TIMER.PCH" /Fo"X64\DEBUG\\" /Fd"X64\DEBUG\TIMER.PDB" /Gd /TP C:\USERS\MRN\DOCUMENTS\LOGGER_S\LOGGER\TIMER\TIMERMANAGER.CPP
