^C:\USERS\MRN\DOCUMENTS\LOGGER_S\LOGGER\LOGGER\CONSOLELOG.CPP|C:\USERS\MRN\DOCUMENTS\LOGGER_S\LOGGER\LOGGER\FILELOG.CPP|C:\USERS\MRN\DOCUMENTS\LOGGER_S\LOGGER\LOGGER\ILOG.CPP|C:\USERS\MRN\DOCUMENTS\LOGGER_S\LOGGER\LOGGER\LOGGINGLEVELS.CPP|C:\USERS\MRN\DOCUMENTS\LOGGER_S\LOGGER\LOGGER\SOURCE.CPP
C:\USERS\MRN\DOCUMENTS\LOGGER_S\LOGGER\LOGGER\DEBUG\LOGGER.PDB
C:\USERS\MRN\DOCUMENTS\LOGGER_S\LOGGER\LOGGER\DEBUG\LOGGER.IDB
C:\USERS\MRN\DOCUMENTS\LOGGER_S\LOGGER\LOGGER\DEBUG\CONSOLELOG.OBJ
C:\USERS\MRN\DOCUMENTS\LOGGER_S\LOGGER\LOGGER\DEBUG\FILELOG.OBJ
C:\USERS\MRN\DOCUMENTS\LOGGER_S\LOGGER\LOGGER\DEBUG\ILOG.OBJ
C:\USERS\MRN\DOCUMENTS\LOGGER_S\LOGGER\LOGGER\DEBUG\LOGGINGLEVELS.OBJ
C:\USERS\MRN\DOCUMENTS\LOGGER_S\LOGGER\LOGGER\DEBUG\SOURCE.OBJ
^C:\USERS\MRN\DOCUMENTS\LOGGER_S\LOGGER\LOGGER\CONSOLELOG.CPP
C:\USERS\MRN\DOCUMENTS\LOGGER_S\LOGGER\LOGGER\DEBUG\LOGGER.PDB
^C:\USERS\MRN\DOCUMENTS\LOGGER_S\LOGGER\LOGGER\FILELOG.CPP
C:\USERS\MRN\DOCUMENTS\LOGGER_S\LOGGER\LOGGER\DEBUG\LOGGER.PDB
^C:\USERS\MRN\DOCUMENTS\LOGGER_S\LOGGER\LOGGER\ILOG.CPP
C:\USERS\MRN\DOCUMENTS\LOGGER_S\LOGGER\LOGGER\DEBUG\LOGGER.PDB
^C:\USERS\MRN\DOCUMENTS\LOGGER_S\LOGGER\LOGGER\LOGGINGLEVELS.CPP
C:\USERS\MRN\DOCUMENTS\LOGGER_S\LOGGER\LOGGER\DEBUG\LOGGER.PDB
^C:\USERS\MRN\DOCUMENTS\LOGGER_S\LOGGER\LOGGER\SOURCE.CPP
C:\USERS\MRN\DOCUMENTS\LOGGER_S\LOGGER\LOGGER\DEBUG\LOGGER.PDB
